<?xml version="1.0" encoding="UTF-8"?>
<svg width="26px" height="28px" viewBox="0 0 26 28" version="1.1" xmlns="http://www.w3.org/2000/svg" xmlns:xlink="http://www.w3.org/1999/xlink">
    <!-- Generator: Sketch 49.2 (51160) - http://www.bohemiancoding.com/sketch -->
    <title>help_active</title>
    <desc>Created with Sketch.</desc>
    <defs>
        <path d="M19.4029851,9.00852878 L21.9149787,9.00852878 C24.1634194,9.00852878 25.9861407,10.8312501 25.9861407,13.0796908 L25.9861407,13.0796908 C25.9861407,15.3281315 24.1634194,17.1508529 21.9149787,17.1508529 L19.4029851,17.1508529 L19.4029851,9.00852878 Z" id="path-1"></path>
        <path d="M0,9.00852878 L2.5119936,9.00852878 C4.76043432,9.00852878 6.58315565,10.8312501 6.58315565,13.0796908 L6.58315565,13.0796908 C6.58315565,15.3281315 4.76043432,17.1508529 2.5119936,17.1508529 L0,17.1508529 L0,9.00852878 Z" id="path-2"></path>
    </defs>
    <g id="final-icons-approved" stroke="none" stroke-width="1" fill="none" fill-rule="evenodd">
        <g id="health-locker-copy-2" transform="translate(-312.000000, -602.000000)">
            <g id="help_active" transform="translate(312.000000, 603.000000)">
                <g id="Rectangle-19">
                    <use fill="#00AA64" fill-rule="evenodd" xlink:href="#path-1"></use>
                    <path stroke="#00AA64" stroke-width="1" d="M19.9029851,9.50852878 L19.9029851,16.6508529 L21.9149787,16.6508529 C23.887277,16.6508529 25.4861407,15.0519892 25.4861407,13.0796908 C25.4861407,11.1073925 23.887277,9.50852878 21.9149787,9.50852878 L19.9029851,9.50852878 Z"></path>
                </g>
                <g id="Rectangle-19" transform="translate(3.291578, 13.079691) scale(-1, 1) translate(-3.291578, -13.079691) ">
                    <use fill="#00AA64" fill-rule="evenodd" xlink:href="#path-2"></use>
                    <path stroke="#00AA64" stroke-width="1" d="M0.5,9.50852878 L0.5,16.6508529 L2.5119936,16.6508529 C4.48429194,16.6508529 6.08315565,15.0519892 6.08315565,13.0796908 C6.08315565,11.1073925 4.48429194,9.50852878 2.5119936,9.50852878 L0.5,9.50852878 Z"></path>
                </g>
                <path d="M22.1748401,9.26839019 C22.1748401,4.14959963 18.0252405,0 12.9064499,0 C7.78765934,0 3.6380597,4.14959963 3.6380597,9.26839019" id="Oval-12" stroke="#00AA64"></path>
                <path d="" id="Path-14" stroke="#808A8F"></path>
                <circle id="Oval-13" stroke="#00AA64" fill="#00AA64" cx="13.9532607" cy="23.7483628" r="1.99326074"></circle>
                <path d="M4.67750533,17.1508529 C5.45980438,19.7838393 6.34135208,21.3385388 7.32214844,21.8149514 C8.30294479,22.291364 9.82875208,22.7458907 11.8995703,23.1785316" id="Path-15" stroke="#00AA64" stroke-linecap="round" stroke-linejoin="round"></path>
                <g id="Page-1" transform="translate(9.316667, 6.240000)" fill="#00AA64">
                    <polygon id="Fill-1" points="0 8.424 1.872 8.424 1.872 6.552 0 6.552"></polygon>
                    <g id="Group-4">
                        <path d="M4.24985238,4.34337184 C4.71120561,3.88742129 4.99905318,3.25477661 4.99905318,2.55464275 C4.99905318,1.17394867 3.8802561,0.0549744574 2.49973915,0.0549744574 C1.11993075,0.0549744574 0.00148795052,1.17270871 -1.77136966e-05,2.55207427 L-1.77136966e-05,5.16156749 L2.1382026,5.16156749 L2.1382026,3.02317003 L3.42988536,3.02317003 L3.42988536,5.16156749 L5.56801711,5.16156749 L5.56801711,6.45316167 L3.42988536,6.45316167 L3.42988536,8.59111629 L6.03884717,8.59111629 C7.41830129,8.58987633 8.53594698,7.47090211 8.53594698,6.09153656 C8.53594698,4.71093104 7.41688419,3.59169112 6.03627868,3.59169112 C5.33641053,3.59169112 4.70376585,3.87971583 4.24985238,4.34337184 Z" id="Fill-2"></path>
                    </g>
                </g>
            </g>
        </g>
    </g>
</svg>