<?xml version="1.0" encoding="UTF-8"?>
<svg width="23px" height="28px" viewBox="0 0 23 28" version="1.1" xmlns="http://www.w3.org/2000/svg" xmlns:xlink="http://www.w3.org/1999/xlink">
    <!-- Generator: Sketch 49.2 (51160) - http://www.bohemiancoding.com/sketch -->
    <title>read</title>
    <desc>Created with Sketch.</desc>
    <defs></defs>
    <g id="final-icons-approved" stroke="none" stroke-width="1" fill="none" fill-rule="evenodd">
        <g id="health-locker-copy" transform="translate(-97.000000, -602.000000)" stroke="#808A8F">
            <g id="read" transform="translate(98.000000, 603.000000)">
                <path d="M20.1264375,0.40625 L3.6684375,0.40625 C1.8663125,0.40625 0.40625,1.867125 0.40625,3.66925 L0.40625,21.4719375 L0.4541875,21.4719375 C0.687375,19.8989375 2.03125,18.6875 3.6684375,18.6875 L21.125,18.6883125 L21.125,1.4048125 C21.125,0.853125 20.678125,0.40625 20.1264375,0.40625 Z" id="Stroke-1"></path>
                <path d="M0.40584375,19.3734937 L0.40584375,22.3228688 C0.40584375,24.1249938 1.86671875,25.5858688 3.66884375,25.5858688 L21.1245938,25.5858688" id="Stroke-3"></path>
                <path d="M3.706625,22.0898438 L21.2769375,22.0898438" id="Stroke-5"></path>
                <g id="Page-1" transform="translate(6.716667, 5.156667)" fill="#D5D8D8" stroke-width="0.5">
                    <polygon id="Fill-1" points="0 8.775 1.95 8.775 1.95 6.825 0 6.825"></polygon>
                    <g id="Group-4">
                        <path d="M4.42692956,4.52434567 C4.90750584,4.04939718 5.20734706,3.39039231 5.20734706,2.6610862 C5.20734706,1.2228632 4.04193344,0.0572650598 2.60389495,0.0572650598 C1.16659454,0.0572650598 0.00154994845,1.22157158 -1.84517673e-05,2.6584107 L-1.84517673e-05,5.3766328 L2.22729438,5.3766328 L2.22729438,3.14913545 L3.57279725,3.14913545 L3.57279725,5.3766328 L5.80001782,5.3766328 L5.80001782,6.72204341 L3.57279725,6.72204341 L3.57279725,8.94907947 L6.2904658,8.94907947 C7.72739718,8.94778784 8.89161144,7.7821897 8.89161144,6.34535058 C8.89161144,4.90721984 7.72592104,3.74134492 6.28779029,3.74134492 C5.55876097,3.74134492 4.8997561,4.04137066 4.42692956,4.52434567 Z" id="Fill-2"></path>
                    </g>
                </g>
            </g>
        </g>
    </g>
</svg>